{
  "prepare_queue": {
    "installed": [],
    "uninstalled": []
  },
  "config_munge": {
    "files": {}
  },
  "installed_plugins": {
    "cordova-plugin-camera": {
      "CAMERA_USAGE_DESCRIPTION": " ",
      "PHOTOLIBRARY_USAGE_DESCRIPTION": " ",
      "PACKAGE_NAME": "com.gilab.recapmobile"
    },
    "cordova-plugin-device": {
      "PACKAGE_NAME": "com.gilab.recapmobile"
    },
    "cordova-plugin-file": {
      "PACKAGE_NAME": "com.gilab.recapmobile"
    },
    "cordova-plugin-geolocation": {
      "GEOLOCATION_USAGE_DESCRIPTION": " ",
      "PACKAGE_NAME": "com.gilab.recapmobile"
    },
    "cordova-plugin-network-information": {
      "PACKAGE_NAME": "com.gilab.recapmobile"
    },
    "cordova-plugin-sqlite": {
      "PACKAGE_NAME": "com.gilab.recapmobile"
    },
    "cordova-plugin-statusbar": {
      "PACKAGE_NAME": "com.gilab.recapmobile"
    },
    "cordova-plugin-whitelist": {
      "PACKAGE_NAME": "com.gilab.recapmobile"
    }
  },
  "dependent_plugins": {
    "cordova-plugin-compat": {
      "PACKAGE_NAME": "com.gilab.recapmobile"
    }
  }
}